Journal (reproducible report)
…
library(tidyverse)
library(readxl)
library(lubridate)

# 2.0 Importing Files ----

bikes_tbl      <- read_excel("data-science/DS_101/00_data/01_bike_sales/01_raw_data/bikes.xlsx")
orderlines_tbl <- read_excel("data-science/DS_101/00_data/01_bike_sales/01_raw_data/orderlines.xlsx")
bikeshops_tbl  <- read_excel("data-science/DS_101/00_data/01_bike_sales/01_raw_data/bikeshops.xlsx")

# 3.0 Examining Data ----

orderlines_tbl

## # A tibble: 15,644 x 7
##    ...1  order.id order.line order.date          customer.id product.id quantity
##    <chr>    <dbl>      <dbl> <dttm>                    <dbl>      <dbl>    <dbl>
##  1 1            1          1 2015-01-07 00:00:00           2       2681        1
##  2 2            1          2 2015-01-07 00:00:00           2       2411        1
##  3 3            2          1 2015-01-10 00:00:00          10       2629        1
##  4 4            2          2 2015-01-10 00:00:00          10       2137        1
##  5 5            3          1 2015-01-10 00:00:00           6       2367        1
##  6 6            3          2 2015-01-10 00:00:00           6       1973        1
##  7 7            3          3 2015-01-10 00:00:00           6       2422        1
##  8 8            3          4 2015-01-10 00:00:00           6       2655        1
##  9 9            3          5 2015-01-10 00:00:00           6       2247        1
## 10 10           4          1 2015-01-11 00:00:00          22       2408        1
## # ... with 15,634 more rows
…
# Step 1 - Manipulate

sales_by_state_year_tbl <- bike_orderlines_wrangled_tbl %>%
  select(state, order_date, total_price) %>%
  mutate(year = year(order_date)) %>%
  group_by(state, year) %>%
  summarize(sales = sum(total_price)) %>%
  mutate(sales_text = scales::dollar(sales, big.mark = ".", 
                                    decimal.mark = ",", 
                                     prefix = "", 
                                     suffix = " €"))

sales_by_state_year_tbl

## # A tibble: 60 x 4
## # Groups:   state [12]
##    state                 year   sales sales_text 
##    <chr>                <int>   <dbl> <chr>      
##  1 " Baden-Württemberg"  2015 1031924 1.031.924 €
##  2 " Baden-Württemberg"  2016 1561658 1.561.658 €
##  3 " Baden-Württemberg"  2017 1224152 1.224.152 €
##  4 " Baden-Württemberg"  2018 1114327 1.114.327 €
##  5 " Baden-Württemberg"  2019 1589029 1.589.029 €
##  6 " Bavaria"            2015 1301461 1.301.461 €
##  7 " Bavaria"            2016 1129852 1.129.852 €
##  8 " Bavaria"            2017 1411851 1.411.851 €
##  9 " Bavaria"            2018 1168783 1.168.783 €
## 10 " Bavaria"            2019 1730872 1.730.872 €
## # ... with 50 more rows
…
